<svg width="80" height="80" viewBox="0 0 80 80" fill="none" xmlns="http://www.w3.org/2000/svg">
<g clip-path="url(#clip0)">
<path d="M78.4373 60.2184C77.3866 60.2184 76.8895 59.8665 76.137 59.3337C75.2188 58.6837 74.076 57.8746 72.0311 57.8746C69.9863 57.8746 68.8435 58.6837 67.9252 59.3337C67.1728 59.8665 66.6757 60.2184 65.6249 60.2184C64.5741 60.2184 64.0771 59.8665 63.3246 59.3337C62.4063 58.6837 61.2635 57.8746 59.2186 57.8746C58.2514 57.8746 57.4877 58.0567 56.8524 58.3162L55.6072 54.8485C58.1818 53.5693 59.956 50.9128 59.956 47.8484C59.956 43.5406 56.4513 40.0359 52.1435 40.0359C49.7755 40.0359 47.6518 41.0964 46.2179 42.7656L40.0274 37.1912C39.0116 36.283 37.6546 35.864 36.3034 36.0389L24.1164 37.6326C22.8776 37.7942 21.7759 38.4286 21.0142 39.4189C20.2525 40.409 19.922 41.6365 20.0836 42.8753C20.4159 45.4232 22.7518 47.2268 25.2976 46.9118L34.199 46.0531L36.8248 48.8832L23.4825 58.464C22.7848 58.1276 21.924 57.8746 20.7812 57.8746C18.7364 57.8746 17.5936 58.6837 16.6753 59.3337C15.9228 59.8665 15.4256 60.2184 14.375 60.2184C13.3243 60.2184 12.8272 59.8665 12.0747 59.3337C11.1564 58.6837 10.0136 57.8746 7.96873 57.8746C5.92389 57.8746 4.78108 58.6837 3.86281 59.3337C3.11031 59.8665 2.61312 60.2184 1.5625 60.2184C0.69953 60.2184 0 60.9181 0 61.7809V78.1866C0 79.0494 0.69953 79.7491 1.5625 79.7491H78.4375C79.3003 79.7491 80 79.0494 80 78.1866V61.7809C79.9999 60.9181 79.3002 60.2184 78.4373 60.2184ZM52.1435 43.1609C54.7282 43.1609 56.831 45.2637 56.831 47.8484C56.831 50.4332 54.7282 52.536 52.1435 52.536C49.5588 52.536 47.456 50.4332 47.456 47.8484C47.456 45.2637 49.5588 43.1609 52.1435 43.1609ZM40.3205 48.0564L35.964 43.3608C35.6326 43.0036 35.154 42.8225 34.6685 42.8683L24.9742 43.8034C24.9568 43.8051 24.9395 43.807 24.9221 43.8093C24.5109 43.8629 24.1037 43.7532 23.7751 43.5004C23.4465 43.2476 23.236 42.8822 23.1825 42.4711C23.1289 42.06 23.2385 41.6526 23.4914 41.3239C23.7442 40.9953 24.1098 40.7848 24.5214 40.7312L36.7082 39.1375C37.1563 39.0794 37.6071 39.2187 37.9407 39.517L44.6694 45.5761C44.4504 46.2954 44.3315 47.0581 44.3315 47.8482C44.3315 52.156 47.8362 55.6609 52.144 55.6609C52.2885 55.6609 52.4319 55.6562 52.5744 55.6485L54.1205 59.9542C53.7586 60.1217 53.3613 60.2182 52.8129 60.2182C51.7621 60.2182 51.2651 59.8663 50.5126 59.3335C49.5943 58.6835 48.4515 57.8745 46.4066 57.8745C44.3618 57.8745 43.219 58.6835 42.3007 59.3335C41.5484 59.8663 41.0512 60.2182 40.0004 60.2182C38.9496 60.2182 38.4526 59.8663 37.7001 59.3335C36.7818 58.6835 35.639 57.8745 33.5942 57.8745C31.5493 57.8745 30.4065 58.6835 29.4882 59.3337C28.7357 59.8663 28.2385 60.2182 27.1879 60.2182C26.9235 60.2182 26.6943 60.1959 26.4871 60.154L40.087 50.3882C40.4512 50.1267 40.6854 49.7212 40.7302 49.2751C40.7745 48.8292 40.6254 48.3853 40.3205 48.0564ZM3.12484 76.6241V72.5738C4.32937 72.3119 5.1339 71.7412 5.81405 71.2577C6.56202 70.7262 7.05608 70.3749 8.09889 70.3749C9.14155 70.3749 9.63576 70.7262 10.3837 71.2577C11.2992 71.9087 12.4387 72.7188 14.479 72.7188C16.5193 72.7188 17.6589 71.9087 18.5745 71.2577C19.3225 70.7262 19.8165 70.3749 20.8593 70.3749C21.9021 70.3749 22.396 70.7262 23.1442 71.2577C24.0598 71.9087 25.1993 72.7188 27.2396 72.7188C29.2799 72.7188 30.4195 71.9088 31.3351 71.258C31.9603 70.8137 32.412 70.4927 33.1576 70.4018C34.0142 70.2973 34.6238 69.518 34.5193 68.6615C34.4148 67.8048 33.6352 67.194 32.7792 67.2998C31.2474 67.4865 30.2923 68.1654 29.5248 68.7109C28.7767 69.2424 28.2824 69.5937 27.2396 69.5937C26.1968 69.5937 25.7028 69.2424 24.9548 68.7107C24.0392 68.0599 22.8996 67.2498 20.8595 67.2498C18.8193 67.2498 17.6797 68.0599 16.7642 68.7107C16.0162 69.2424 15.5222 69.5937 14.4793 69.5937C13.4367 69.5937 12.9426 69.2424 12.1947 68.7109C11.279 68.0599 10.1395 67.2498 8.0992 67.2498C6.05889 67.2498 4.91937 68.0599 4.00374 68.7109C3.68562 68.937 3.41328 69.1301 3.12515 69.2777V63.1641C4.24905 62.8892 5.01562 62.3465 5.66858 61.8843C6.42108 61.3515 6.91827 60.9996 7.96889 60.9996C9.01967 60.9996 9.5167 61.3515 10.2692 61.8843C11.1875 62.5343 12.3301 63.3434 14.3751 63.3434C16.4201 63.3434 17.5628 62.5343 18.4811 61.8843C19.2336 61.3515 19.7307 60.9996 20.7814 60.9996C21.832 60.9996 22.3292 61.3515 23.0817 61.8841C24 62.5343 25.1428 63.3434 27.1876 63.3434C29.2324 63.3434 30.3753 62.5343 31.2935 61.8843C32.046 61.3515 32.5432 60.9996 33.5938 60.9996C34.6445 60.9996 35.1417 61.3515 35.8941 61.8841C36.8124 62.5343 37.9552 63.3434 40.0001 63.3434C42.0449 63.3434 43.1879 62.5343 44.1062 61.8841C44.8585 61.3515 45.3557 60.9996 46.4065 60.9996C47.4573 60.9996 47.9543 61.3515 48.7068 61.8843C49.6251 62.5343 50.7679 63.3434 52.8127 63.3434C54.8575 63.3434 56.0004 62.5343 56.9186 61.8843C57.671 61.3515 58.1682 60.9996 59.2189 60.9996C60.2697 60.9996 60.7668 61.3515 61.5193 61.8843C62.4375 62.5343 63.5803 63.3434 65.6252 63.3434C67.67 63.3434 68.8128 62.5343 69.7311 61.8843C70.4835 61.3515 70.9806 60.9996 72.0314 60.9996C73.0822 60.9996 73.5792 61.3515 74.3317 61.8843C74.9849 62.3465 75.7514 62.8893 76.8752 63.1641V69.2777C76.587 69.1301 76.3147 68.937 75.9966 68.7109C75.0809 68.0599 73.9414 67.2498 71.9011 67.2498C69.8608 67.2498 68.7213 68.0599 67.8056 68.7109C67.0577 69.2424 66.5636 69.5937 65.521 69.5937C64.4782 69.5937 63.9841 69.2424 63.2361 68.7107C62.3205 68.0599 61.181 67.2498 59.1407 67.2498C57.1004 67.2498 55.961 68.0599 55.0454 68.7107C54.2974 69.2424 53.8033 69.5937 52.7605 69.5937C51.7177 69.5937 51.2235 69.2424 50.4754 68.7109C49.7077 68.1652 48.7524 67.486 47.2198 67.2995C46.3637 67.1948 45.5841 67.8049 45.4798 68.6616C45.3755 69.5182 45.9852 70.2973 46.8419 70.4016C47.5877 70.4924 48.0396 70.8137 48.6651 71.2579C49.5805 71.9088 50.7202 72.7188 52.7605 72.7188C54.8008 72.7188 55.9404 71.9087 56.856 71.2577C57.604 70.7262 58.098 70.3749 59.1407 70.3749C60.1835 70.3749 60.6775 70.7262 61.4255 71.2579C62.3411 71.9087 63.4807 72.7188 65.521 72.7188C67.5613 72.7188 68.7006 71.9087 69.6163 71.2579C70.3642 70.7262 70.8583 70.3749 71.9011 70.3749C72.9439 70.3749 73.438 70.7262 74.186 71.2579C74.8661 71.7413 75.6706 72.3119 76.8752 72.5738V76.6241H3.12484Z" fill="url(#paint0_linear)"/>
<path d="M39.9995 69.594H39.9984C39.1354 69.594 38.4365 70.2937 38.4365 71.1565C38.4365 72.0193 39.1365 72.719 39.9995 72.719C40.8625 72.719 41.562 72.0193 41.562 71.1565C41.562 70.2937 40.8625 69.594 39.9995 69.594Z" fill="url(#paint1_linear)"/>
</g>
<defs>
<linearGradient id="paint0_linear" x1="-16.5714" y1="58.408" x2="79.2064" y2="58.5794" gradientUnits="userSpaceOnUse">
<stop stop-color="#EC0A15"/>
<stop offset="1" stop-color="#233BDB"/>
</linearGradient>
<linearGradient id="paint1_linear" x1="37.7891" y1="71.1946" x2="41.531" y2="71.1983" gradientUnits="userSpaceOnUse">
<stop stop-color="#EC0A15"/>
<stop offset="1" stop-color="#233BDB"/>
</linearGradient>
<clipPath id="clip0">
<rect width="80" height="80" fill="white"/>
</clipPath>
</defs>
</svg>
