<svg width="8" height="10" viewBox="0 0 8 10" fill="none" xmlns="http://www.w3.org/2000/svg">
<path d="M7.51562 3.9043L1.32812 0.248047C0.818359 -0.0507812 0.0625 0.248047 0.0625 0.96875V8.28125C0.0625 8.94922 0.765625 9.35352 1.32812 9.01953L7.51562 5.36328C8.06055 5.0293 8.06055 4.23828 7.51562 3.9043Z" fill="white"/>
</svg>
