<svg width="13" height="13" viewBox="0 0 13 13" fill="none" xmlns="http://www.w3.org/2000/svg">
<path d="M11.3125 0.625H1.6875C0.949219 0.625 0.375 1.22656 0.375 1.9375V11.5625C0.375 12.3008 0.949219 12.875 1.6875 12.875H11.3125C12.0234 12.875 12.625 12.3008 12.625 11.5625V1.9375C12.625 1.22656 12.0234 0.625 11.3125 0.625Z" fill="#EB5757"/>
</svg>
