<svg width="105" height="33" viewBox="0 0 105 33" fill="none" xmlns="http://www.w3.org/2000/svg">
<path d="M19.6999 8.7002C19.1999 11.2002 17.3999 12.4004 14.8999 12.4004H6.8999L7.3999 9.90039H15.3999C16.1999 9.90039 16.6999 9.5002 16.8999 8.7002C17.0999 7.9002 16.6999 7.5 15.8999 7.5H11.2999C8.7999 7.5 7.49991 6.30029 8.09991 3.80029C8.59991 1.30029 10.3999 0.100098 12.8999 0.100098H20.8999L20.3999 2.6001H12.3999C11.5999 2.6001 11.0999 3.00029 10.8999 3.80029C10.6999 4.60029 11.0999 5 11.8999 5H16.4999C18.9999 5 20.2999 6.3002 19.6999 8.7002Z" fill="#040D5F"/>
<path d="M34.1998 2.6001H29.2998L27.1998 12.4004H24.4998L26.4998 2.6001H21.5999L22.0999 0.100098H34.7998L34.1998 2.6001Z" fill="#040D5F"/>
<path d="M46.9 8.7002C46.4 11.2002 44.6 12.4004 42.1 12.4004H37.5C35 12.4004 33.7 11.2002 34.3 8.7002L36.1 0H38.9L37.1 8.7002C36.9 9.5002 37.3 9.90039 38.1 9.90039H42.7C43.5 9.90039 44 9.5002 44.2 8.7002L46 0H48.8L46.9 8.7002Z" fill="#040D5F"/>
<path d="M60.8999 8.7002C60.3999 11.2002 58.5999 12.4004 56.0999 12.4004H47.3999L49.9999 0H58.6999C61.1999 0 62.4999 1.2002 61.8999 3.7002L60.8999 8.7002ZM50.7999 10H56.6999C57.4999 10 57.9999 9.60029 58.1999 8.80029L59.1999 3.90039C59.3999 3.10039 58.9999 2.7002 58.1999 2.7002H52.2999L50.7999 10Z" fill="#040D5F"/>
<path d="M76.3 2.6001H66.4L65.9 5H73.3L72.7 7.5H65.3L64.8 10H74.7L74.2 12.4004H61.5L64.1 0.100098H76.8L76.3 2.6001Z" fill="#040D5F"/>
<path d="M88.1998 12.4004H85.4998L80.0999 3.90039L78.2998 12.4004H75.5999L78.1998 0.100098H80.8998L86.2998 8.7002L88.0999 0.100098H90.7998L88.1998 12.4004Z" fill="#040D5F"/>
<path d="M104.2 2.6001H99.3L97.2 12.4004H94.4L96.5 2.6001H91.5L92.1 0.100098H104.7L104.2 2.6001Z" fill="#040D5F"/>
<path d="M99.7999 15H7.79991C5.29991 15 3.49992 16.2002 2.99992 18.7002L0.999922 28.4004C0.499922 30.9004 1.7999 32.1001 4.1999 32.1001H96.1999C98.6999 32.1001 100.5 30.9004 101 28.4004L103 18.7002C103.6 16.2002 102.3 15 99.7999 15ZM16.1999 26C15.6999 28.5 13.8999 29.7002 11.3999 29.7002H3.39992L3.89992 27.2002H11.8999C12.6999 27.2002 13.1999 26.8 13.3999 26C13.5999 25.2 13.1999 24.8003 12.3999 24.8003H7.79991C5.29991 24.8003 4.09993 23.6001 4.59993 21.1001C5.09993 18.6001 6.89992 17.4004 9.39992 17.4004H17.3999L16.8999 19.9004H8.89992C8.09992 19.9004 7.59992 20.3001 7.39992 21.1001C7.19992 21.9001 7.59992 22.3003 8.39992 22.3003H12.9999C15.4999 22.3003 16.6999 23.5 16.1999 26ZM30.9999 22.3003C30.4999 24.8003 28.9999 26 26.4999 26H20.2999L19.4999 29.7002H16.6999L19.2999 17.4004H28.1999C30.6999 17.4004 31.5999 18.6001 31.0999 21.1001L30.9999 22.3003ZM39.2999 29.9004H34.6999C32.1999 29.9004 30.9999 28.7002 31.4999 26.2002L32.5999 20.9004C33.0999 18.4004 34.8999 17.2002 37.3999 17.2002H41.9999C44.4999 17.2002 45.6999 18.4004 45.1999 20.9004L44.0999 26.2002C43.5999 28.7002 41.7999 29.9004 39.2999 29.9004ZM59.1999 21.1001L58.8999 22.3003C58.3999 24.8003 56.8999 26 54.3999 26L57.2999 29.7002H53.4999L50.5999 26H48.1999L47.3999 29.7002H44.5999L47.1999 17.4004H55.7999C58.3999 17.4004 59.6999 18.6001 59.1999 21.1001ZM65.4999 29.7002H62.6999L64.7999 19.8003H59.8999L60.3999 17.3003H72.9999L72.4999 19.8003H67.5999L65.4999 29.7002ZM70.3999 29.7002H67.8999L68.3999 27.2002H70.8999L70.3999 29.7002ZM81.4999 26L84.3999 29.7002H80.5999L77.6999 26H75.2999L74.4999 29.7002H71.6999L74.2999 17.4004H82.8999C85.3999 17.4004 86.5999 18.6001 86.0999 21.1001L85.7999 22.3003C85.4999 24.8003 83.9999 26 81.4999 26ZM98.8999 26C98.3999 28.5 96.5999 29.7002 94.0999 29.7002H89.4999C86.9999 29.7002 85.7999 28.5 86.2999 26L88.0999 17.4004H90.8999L89.0999 26C88.8999 26.8 89.2999 27.2002 90.0999 27.2002H94.6999C95.4999 27.2002 95.9999 26.8 96.1999 26L97.9999 17.4004H100.8L98.8999 26Z" fill="#040D5F"/>
<path d="M82.5001 19.8003H76.6001L75.8 23.5H81.7C82.5 23.5 83 23.1003 83.2 22.3003L83.5001 21.1001C83.7001 20.2001 83.3001 19.8003 82.5001 19.8003Z" fill="#040D5F"/>
<path d="M41.5 19.6001H36.9C36.1 19.6001 35.6 20.0003 35.4 20.8003L34.3 26.1001C34.1 26.9001 34.5 27.3003 35.3 27.3003H39.9C40.7 27.3003 41.2 26.9001 41.4 26.1001L42.5 20.8003C42.6 20.0003 42.3 19.6001 41.5 19.6001Z" fill="#040D5F"/>
<path d="M27.8 19.8003H21.6001L20.8 23.5H27.0001C27.8001 23.5 28.3001 23.1003 28.5001 22.3003L28.8 21.1001C29 20.2001 28.7 19.8003 27.8 19.8003Z" fill="#040D5F"/>
<path d="M55.4 19.8003H49.5L48.7 23.5H54.6C55.4 23.5 55.9 23.1003 56.1 22.3003L56.4 21.1001C56.6 20.2001 56.3 19.8003 55.4 19.8003Z" fill="#040D5F"/>
</svg>
