<svg width="30" height="31" viewBox="0 0 30 31" fill="none" xmlns="http://www.w3.org/2000/svg">
<circle cx="15" cy="15.1484" r="15" fill="#FFD028"/>
<path d="M13.3882 21.521C13.2284 21.6849 13.0103 21.7763 12.7838 21.7763C12.5573 21.7763 12.3392 21.6849 12.1794 21.521L7.35227 16.5987C6.85133 16.0879 6.85133 15.2597 7.35227 14.75L7.9567 14.1336C8.4578 13.6228 9.26918 13.6228 9.77013 14.1336L12.7838 17.2063L20.9272 8.90356C21.4283 8.39282 22.2404 8.39282 22.7406 8.90356L23.345 9.51996C23.846 10.0307 23.846 10.8587 23.345 11.3687L13.3882 21.521Z" fill="white"/>
</svg>
