<svg width="14" height="14" viewBox="0 0 14 14" fill="none" xmlns="http://www.w3.org/2000/svg">
<path d="M12.5 0H1.5C0.65625 0 0 0.6875 0 1.5V12.5C0 13.3438 0.65625 14 1.5 14H12.5C13.3125 14 14 13.3438 14 12.5V1.5C14 0.6875 13.3125 0 12.5 0ZM12.5 1C12.75 1 13 1.25 13 1.5V12.5C13 12.7812 12.75 13 12.5 13H1.5C1.21875 13 1 12.7812 1 12.5V1.5C1 1.25 1.21875 1 1.5 1H12.5ZM11.4062 4.09375L11.1562 3.8125C11 3.6875 10.75 3.6875 10.625 3.8125L5.5 8.875L3.34375 6.71875C3.21875 6.5625 2.96875 6.5625 2.8125 6.71875L2.5625 6.96875C2.40625 7.125 2.40625 7.34375 2.5625 7.5L5.25 10.2188C5.375 10.3438 5.625 10.3438 5.78125 10.2188L11.4062 4.625C11.5625 4.46875 11.5625 4.21875 11.4062 4.09375Z" fill="#1D1D1B"/>
</svg>
