<svg width="659" height="655" viewBox="0 0 659 655" fill="none" xmlns="http://www.w3.org/2000/svg">
<circle cx="151.479" cy="147.478" r="341" transform="rotate(60 151.479 147.478)" stroke="url(#paint0_linear)" stroke-width="61"/>
<defs>
<linearGradient id="paint0_linear" x1="-373.929" y1="156.539" x2="515.61" y2="157.409" gradientUnits="userSpaceOnUse">
<stop stop-color="#EC0A15"/>
<stop offset="1" stop-color="#233BDB"/>
</linearGradient>
</defs>
</svg>
