<svg width="673" height="673" viewBox="0 0 673 673" fill="none" xmlns="http://www.w3.org/2000/svg">
<circle opacity="0.1" cx="336.5" cy="336.5" r="306" stroke="url(#paint0_linear)" stroke-width="61"/>
<defs>
<linearGradient id="paint0_linear" x1="-139.407" y1="344.707" x2="666.325" y2="345.495" gradientUnits="userSpaceOnUse">
<stop stop-color="#EC0A15"/>
<stop offset="1" stop-color="#233BDB"/>
</linearGradient>
</defs>
</svg>
