<svg width="1015" height="1015" viewBox="0 0 1015 1015" fill="none" xmlns="http://www.w3.org/2000/svg">
<circle opacity="0.1" cx="507.479" cy="507.478" r="341" transform="rotate(60 507.479 507.478)" stroke="url(#paint0_linear)" stroke-width="61"/>
<defs>
<linearGradient id="paint0_linear" x1="-17.9286" y1="516.539" x2="871.61" y2="517.409" gradientUnits="userSpaceOnUse">
<stop stop-color="#EC0A15"/>
<stop offset="1" stop-color="#233BDB"/>
</linearGradient>
</defs>
</svg>
