<svg width="671" height="762" viewBox="0 0 671 762" fill="none" xmlns="http://www.w3.org/2000/svg">
<path opacity="0.1" d="M636.925 673.914L82.587 396.062L600.382 54.9173L636.925 673.914Z" stroke="url(#paint0_linear)" stroke-width="61"/>
<defs>
<linearGradient id="paint0_linear" x1="485.088" y1="965.918" x2="426.943" y2="-35.6708" gradientUnits="userSpaceOnUse">
<stop stop-color="#EC0A15"/>
<stop offset="1" stop-color="#233BDB"/>
</linearGradient>
</defs>
</svg>
